{
	"info": {
		"_postman_id": "2bb97a81-59c5-4f1b-ac95-353f682d10db",
		"name": "Toddle",
		"schema": "https://schema.getpostman.com/json/collection/v2.1.0/collection.json"
	},
	"item": [
		{
			"name": "/home",
			"request": {
				"method": "POST",
				"header": [
					{
						"key": "Authorization",
						"value": "Bearer eyJhbGciOiJIUzUxMiJ9.eyJqdGkiOiJzb2Z0dGVrSldUIiwic3ViIjoiemFpbiIsImF1dGhvcml0aWVzIjpbIlJPTEVfVVNFUiJdLCJpYXQiOjE2MjcxNDMzNTMsImV4cCI6MTYyNzE0Mzk1M30.IzLyNqOxu40WQz5vdAQ-1A2fVknjqU6nuCu8NSlLR1whe-iISm5O9N1PA4kybngB2pZCBE3F8-ssSZT3jna6Xg",
						"type": "text",
						"disabled": true
					}
				],
				"url": {
					"raw": "https://aqueous-beyond-56381.herokuapp.com/home",
					"protocol": "https",
					"host": [
						"aqueous-beyond-56381",
						"herokuapp",
						"com"
					],
					"path": [
						"home"
					]
				}
			},
			"response": []
		},
		{
			"name": "Login",
			"request": {
				"method": "POST",
				"header": [],
				"body": {
					"mode": "formdata",
					"formdata": [
						{
							"key": "userName",
							"value": "zain",
							"type": "text"
						},
						{
							"key": "password",
							"value": "password",
							"type": "text"
						}
					]
				},
				"url": {
					"raw": "https://aqueous-beyond-56381.herokuapp.com/user",
					"protocol": "https",
					"host": [
						"aqueous-beyond-56381",
						"herokuapp",
						"com"
					],
					"path": [
						"user"
					],
					"query": [
						{
							"key": "user",
							"value": "zain",
							"disabled": true
						},
						{
							"key": "password",
							"value": "password",
							"disabled": true
						}
					]
				}
			},
			"response": []
		},
		{
			"name": "Login student",
			"request": {
				"method": "POST",
				"header": [],
				"body": {
					"mode": "formdata",
					"formdata": [
						{
							"key": "userName",
							"value": "one",
							"type": "text"
						},
						{
							"key": "password",
							"value": "one",
							"type": "text"
						}
					]
				},
				"url": {
					"raw": "https://aqueous-beyond-56381.herokuapp.com/user",
					"protocol": "https",
					"host": [
						"aqueous-beyond-56381",
						"herokuapp",
						"com"
					],
					"path": [
						"user"
					],
					"query": [
						{
							"key": "userName",
							"value": "one",
							"disabled": true
						},
						{
							"key": "password",
							"value": "one",
							"disabled": true
						}
					]
				}
			},
			"response": []
		},
		{
			"name": "create Assignment",
			"request": {
				"method": "POST",
				"header": [
					{
						"key": "Authorization",
						"value": "Bearer eyJhbGciOiJIUzUxMiJ9.eyJqdGkiOiJ6YWluIiwic3ViIjoiemFpbiIsImF1dGhvcml0aWVzIjpbIlJPTEVfVVNFUiJdLCJpYXQiOjE2MjcyMTEyMjksImV4cCI6MTYyNzIxMTgyOX0.L93kONE8c_s0Lso6Zo7JK1M3huEYIWqi1tkhCKWQB-n9_nPpDEAxgi3_CCc9PomOzYdNxJjuHa_ibPlwgbVq6A",
						"type": "text"
					}
				],
				"body": {
					"mode": "formdata",
					"formdata": [
						{
							"key": "name",
							"value": "future",
							"type": "text"
						},
						{
							"key": "desc",
							"value": "DESC",
							"type": "text"
						},
						{
							"key": "start",
							"value": "27-07-2021",
							"type": "text"
						},
						{
							"key": "end",
							"value": "2-08-2021",
							"type": "text"
						},
						{
							"key": "students",
							"value": "2,3",
							"type": "text"
						}
					]
				},
				"url": {
					"raw": "https://aqueous-beyond-56381.herokuapp.com/service/assignment/create",
					"protocol": "https",
					"host": [
						"aqueous-beyond-56381",
						"herokuapp",
						"com"
					],
					"path": [
						"service",
						"assignment",
						"create"
					],
					"query": [
						{
							"key": "name",
							"value": "TITLE",
							"disabled": true
						},
						{
							"key": "desc",
							"value": "descccc",
							"disabled": true
						},
						{
							"key": "start",
							"value": "26-07-2021",
							"disabled": true
						},
						{
							"key": "end",
							"value": "2-08-2021",
							"disabled": true
						},
						{
							"key": "students",
							"value": "2",
							"disabled": true
						}
					]
				}
			},
			"response": []
		},
		{
			"name": "get Assignment",
			"request": {
				"method": "POST",
				"header": [
					{
						"key": "Authorization",
						"value": "Bearer eyJhbGciOiJIUzUxMiJ9.eyJqdGkiOiJzb2Z0dGVrSldUIiwic3ViIjoiemFpbiIsImF1dGhvcml0aWVzIjpbIlJPTEVfVVNFUiJdLCJpYXQiOjE2MjcyMDk0MzIsImV4cCI6MTYyNzIxMDAzMn0.dxZeXMbmKGxC1X9mmxpqUxG4qdYesDbTyl8VSY94rtM0JN7rJYOPLwcbPG7V9Obt8xusydIWu38CpRWbjHesPw",
						"type": "text"
					}
				],
				"url": {
					"raw": "https://aqueous-beyond-56381.herokuapp.com/service/assignment/2",
					"protocol": "https",
					"host": [
						"aqueous-beyond-56381",
						"herokuapp",
						"com"
					],
					"path": [
						"service",
						"assignment",
						"2"
					]
				}
			},
			"response": []
		},
		{
			"name": "Submit Assignment",
			"request": {
				"method": "POST",
				"header": [
					{
						"key": "Authorization",
						"value": "Bearer eyJhbGciOiJIUzUxMiJ9.eyJqdGkiOiJzb2Z0dGVrSldUIiwic3ViIjoiemFpbiIsImF1dGhvcml0aWVzIjpbIlJPTEVfVVNFUiJdLCJpYXQiOjE2MjcyMDk0MzIsImV4cCI6MTYyNzIxMDAzMn0.dxZeXMbmKGxC1X9mmxpqUxG4qdYesDbTyl8VSY94rtM0JN7rJYOPLwcbPG7V9Obt8xusydIWu38CpRWbjHesPw",
						"type": "text"
					}
				],
				"body": {
					"mode": "formdata",
					"formdata": [
						{
							"key": "assURL",
							"value": "URRL",
							"type": "text"
						},
						{
							"key": "remark",
							"value": "none",
							"type": "text"
						},
						{
							"key": "assId",
							"value": "2",
							"type": "text"
						}
					]
				},
				"url": {
					"raw": "https://aqueous-beyond-56381.herokuapp.com/service/assignment/submit",
					"protocol": "https",
					"host": [
						"aqueous-beyond-56381",
						"herokuapp",
						"com"
					],
					"path": [
						"service",
						"assignment",
						"submit"
					]
				}
			},
			"response": []
		},
		{
			"name": "delete Assignment",
			"request": {
				"method": "POST",
				"header": [
					{
						"key": "Authorization",
						"value": "Bearer eyJhbGciOiJIUzUxMiJ9.eyJqdGkiOiJzb2Z0dGVrSldUIiwic3ViIjoiemFpbiIsImF1dGhvcml0aWVzIjpbIlJPTEVfVVNFUiJdLCJpYXQiOjE2MjcyMDk0MzIsImV4cCI6MTYyNzIxMDAzMn0.dxZeXMbmKGxC1X9mmxpqUxG4qdYesDbTyl8VSY94rtM0JN7rJYOPLwcbPG7V9Obt8xusydIWu38CpRWbjHesPw",
						"type": "text"
					}
				],
				"url": {
					"raw": "https://aqueous-beyond-56381.herokuapp.com/service/assignment/delete/1",
					"protocol": "https",
					"host": [
						"aqueous-beyond-56381",
						"herokuapp",
						"com"
					],
					"path": [
						"service",
						"assignment",
						"delete",
						"1"
					]
				}
			},
			"response": []
		},
		{
			"name": "feed",
			"request": {
				"method": "POST",
				"header": [
					{
						"key": "Authorization",
						"value": "Bearer eyJhbGciOiJIUzUxMiJ9.eyJqdGkiOiJ6YWluIiwic3ViIjoiemFpbiIsImF1dGhvcml0aWVzIjpbIlJPTEVfVVNFUiJdLCJpYXQiOjE2MjcyMTAyMDAsImV4cCI6MTYyNzIxMDgwMH0.6ZB6xcAAd5L3oVtjUfqgam0NOiTOUyBnKRtF9EoALxSNOkif3fSu_GnyKzT5FNs5ohE5K68z-xJMgxvNVuvj1Q",
						"type": "text"
					}
				],
				"url": {
					"raw": "https://aqueous-beyond-56381.herokuapp.com/service/feed",
					"protocol": "https",
					"host": [
						"aqueous-beyond-56381",
						"herokuapp",
						"com"
					],
					"path": [
						"service",
						"feed"
					]
				}
			},
			"response": []
		}
	]
}